Intro to Base R iterations
…
---
# Inspect it

```r
splt2
```

```
## $Adelie.Biscoe
## # A tibble: 44 × 8
##    species island bill_length_mm bill_depth_mm flipper_length_mm body_mass_g sex   
##    <fct>   <fct>           <dbl>         <dbl>             <int>       <int> <fct> 
##  1 Adelie  Biscoe           37.8          18.3               174        3400 female
##  2 Adelie  Biscoe           37.7          18.7               180        3600 male  
##  3 Adelie  Biscoe           35.9          19.2               189        3800 female
##  4 Adelie  Biscoe           38.2          18.1               185        3950 male  
##  5 Adelie  Biscoe           38.8          17.2               180        3800 male  
##  6 Adelie  Biscoe           35.3          18.9               187        3800 female
##  7 Adelie  Biscoe           40.6          18.6               183        3550 male  
##  8 Adelie  Biscoe           40.5          17.9               187        3200 female
##  9 Adelie  Biscoe           37.9          18.6               172        3150 female
## 10 Adelie  Biscoe           40.5          18.9               180        3950 male  
## # … with 34 more rows, and 1 more variable: year <int>
## 
## $Chinstrap.Biscoe
## # A tibble: 0 × 8
## # … with 8 variables: species <fct>, island <fct>, bill_length_mm <dbl>,
## #   bill_depth_mm <dbl>, flipper_length_mm <int>, body_mass_g <int>, sex <fct>,
## #   year <int>
## 
## $Gentoo.Biscoe
## # A tibble: 124 × 8
##    species island bill_length_mm bill_depth_mm flipper_length_mm body_mass_g sex   
##    <fct>   <fct>           <dbl>         <dbl>             <int>       <int> <fct> 
##  1 Gentoo  Biscoe           46.1          13.2               211        4500 female
##  2 Gentoo  Biscoe           50            16.3               230        5700 male  
##  3 Gentoo  Biscoe           48.7          14.1               210        4450 female
##  4 Gentoo  Biscoe           50            15.2               218        5700 male  
##  5 Gentoo  Biscoe           47.6          14.5               215        5400 male  
##  6 Gentoo  Biscoe           46.5          13.5               210        4550 female
##  7 Gentoo  Biscoe           45.4          14.6               211        4800 female
##  8 Gentoo  Biscoe           46.7          15.3               219        5200 male  
##  9 Gentoo  Biscoe           43.3          13.4               209        4400 female
## 10 Gentoo  Biscoe           46.8          15.4               215        5150 male  
## # … with 114 more rows, and 1 more variable: year <int>
## 
## $Adelie.Dream
## # A tibble: 56 × 8
##    species island bill_length_mm bill_depth_mm flipper_length_mm body_mass_g sex   
##    <fct>   <fct>           <dbl>         <dbl>             <int>       <int> <fct> 
##  1 Adelie  Dream            39.5          16.7               178        3250 female
##  2 Adelie  Dream            37.2          18.1               178        3900 male  
##  3 Adelie  Dream            39.5          17.8               188        3300 female
##  4 Adelie  Dream            40.9          18.9               184        3900 male  
##  5 Adelie  Dream            36.4          17                 195        3325 female
##  6 Adelie  Dream            39.2          21.1               196        4150 male  
##  7 Adelie  Dream            38.8          20                 190        3950 male  
##  8 Adelie  Dream            42.2          18.5               180        3550 female
##  9 Adelie  Dream            37.6          19.3               181        3300 female
## 10 Adelie  Dream            39.8          19.1               184        4650 male  
## # … with 46 more rows, and 1 more variable: year <int>
## 
## $Chinstrap.Dream
## # A tibble: 68 × 8
##    species   island bill_length_mm bill_depth_mm flipper_length_mm body_mass_g sex   
##    <fct>     <fct>           <dbl>         <dbl>             <int>       <int> <fct> 
##  1 Chinstrap Dream            46.5          17.9               192        3500 female
##  2 Chinstrap Dream            50            19.5               196        3900 male  
##  3 Chinstrap Dream            51.3          19.2               193        3650 male  
##  4 Chinstrap Dream            45.4          18.7               188        3525 female
##  5 Chinstrap Dream            52.7          19.8               197        3725 male  
##  6 Chinstrap Dream            45.2          17.8               198        3950 female
##  7 Chinstrap Dream            46.1          18.2               178        3250 female
##  8 Chinstrap Dream            51.3          18.2               197        3750 male  
##  9 Chinstrap Dream            46            18.9               195        4150 female
## 10 Chinstrap Dream            51.3          19.9               198        3700 male  
## # … with 58 more rows, and 1 more variable: year <int>
## 
## $Gentoo.Dream
## # A tibble: 0 × 8
## # … with 8 variables: species <fct>, island <fct>, bill_length_mm <dbl>,
## #   bill_depth_mm <dbl>, flipper_length_mm <int>, body_mass_g <int>, sex <fct>,
## #   year <int>
## 
## $Adelie.Torgersen
## # A tibble: 52 × 8
##    species island    bill_length_mm bill_depth_mm flipper_length_mm body_mass_g sex   
##    <fct>   <fct>              <dbl>         <dbl>             <int>       <int> <fct> 
##  1 Adelie  Torgersen           39.1          18.7               181        3750 male  
##  2 Adelie  Torgersen           39.5          17.4               186        3800 female
##  3 Adelie  Torgersen           40.3          18                 195        3250 female
##  4 Adelie  Torgersen           NA            NA                  NA          NA <NA>  
##  5 Adelie  Torgersen           36.7          19.3               193        3450 female
##  6 Adelie  Torgersen           39.3          20.6               190        3650 male  
##  7 Adelie  Torgersen           38.9          17.8               181        3625 female
##  8 Adelie  Torgersen           39.2          19.6               195        4675 male  
##  9 Adelie  Torgersen           34.1          18.1               193        3475 <NA>  
## 10 Adelie  Torgersen           42            20.2               190        4250 <NA>  
## # … with 42 more rows, and 1 more variable: year <int>
## 
## $Chinstrap.Torgersen
…
